{
    "editor": [
        {
            "icon": "",
            "key": "settings",
            "header": "Settings",
            "disabled": false,
            "fields": [
                {
                    "key": "image",
                    "header": "Background Image",
                    "type": "image"
                },
                {
                    "key": "messages",
                    "header": "Messages",
                    "type": "array",
                    "fields": [
                        {
                            "key": "message1",
                            "header": "Message 1",
                            "type": "array",
                            "fields": [
                                {
                                    "key": "message",
                                    "header": "Message",
                                    "type": "text"
                                }
                            ]
                        },
                        {
                            "key": "message2",
                            "header": "Message 2",
                            "type": "array",
                            "fields": [
                                {
                                    "key": "message",
                                    "header": "Message",
                                    "type": "text"
                                }
                            ]
                        },
                        {
                            "key": "message3",
                            "header": "Message 3",
                            "type": "array",
                            "fields": [
                                {
                                    "key": "message",
                                    "header": "Message",
                                    "type": "text"
                                }
                            ]
                        },
                        {
                            "key": "message4",
                            "header": "Message 4",
                            "type": "array",
                            "fields": [
                                {
                                    "key": "message",
                                    "header": "Message",
                                    "type": "text"
                                }
                            ]
                        }
                    ]
                },
                {
                    "key": "position",
                    "header": "Position of box",
                    "type": "dropdown",
                    "fields": [
                        {
                            "key": "option1",
                            "header": "option 1",
                            "type": "text"
                        },
                        {
                            "key": "option1",
                            "header": "option 2",
                            "type": "text"
                        },
                        {
                            "key": "option1",
                            "header": "option 3",
                            "type": "text"
                        }
                    ]
                },
                {
                    "key": "size",
                    "header": "Size of Box",
                    "type": "array",
                    "fields": [
                        {
                            "key": "height",
                            "header": "Height of box",
                            "type": "range",
                            "options": {
                                "minValue": 20,
                                "maxValue": 80,
                                "stepsize": 10
                            }
                        },
                        {
                            "key": "width",
                            "header": "Width of box",
                            "type": "range",
                            "options": {
                                "minValue": 20,
                                "maxValue": 80,
                                "stepsize": 10
                            }
                        }
                    ]
                },
                {
                    "key": "font",
                    "header": "Text Font",
                    "type": "text"
                },
                {
                    "key": "textColor",
                    "header": "Text Color",
                    "type": "color"
                },
                {
                    "key": "autplayTime",
                    "header": "Autoplay Time",
                    "type": "range",
                    "options": {
                        "minValue": 1,
                        "maxValue": 10,
                        "stepSize": 1
                    }
                },
                {
                    "key": "boxColor",
                    "header": "Box Color",
                    "type": "color"
                }
            ]
        }
    ],
    "config": {
        "settings": {
            "image": "https://frontend.apps.playcent.com/783b751992274bb499fffe070fb9da5c/assets/The-Dark-Knight.jpg",
            "messages": {
                "message1": {
                    "message": "EVERYTHING’S"
                },
                "message2": {
                    "message": "IMPOSSIBLE"
                },
                "message3": {
                    "message": "UNTIL"
                },
                "message4": {
                    "message": "SOMEBODY DOES IT"
                }
            },
            "position": "bottom",
            "size": {
                "height": 70,
                "width": 50
            },
            "font": "Syne Mono",
            "textColor": "black",
            "autoplayTime": 1,
            "boxColor": "white"
        }
    }
}